{
    "key": "group_587bf4a7b0489",
    "title": "Accueil - Lieu",
    "fields": [
        {
            "key": "field_587bf4a7b49a4",
            "label": "Texte",
            "name": "h__lieu_banner_texte",
            "type": "textarea",
            "instructions": "",
            "required": 1,
            "conditional_logic": 0,
            "wrapper": {
                "width": "",
                "class": "",
                "id": ""
            },
            "default_value": "Le bar \u00e0 m\u00e9ditation a \u00e9t\u00e9 cr\u00e9\u00e9 pour que vous vous sentiez bien.\r\nLieu unique \u00e0 Paris, situ\u00e9 sur trois niveaux, le bar vous accueille pour vous permettre de m\u00e9diter.",
            "placeholder": "",
            "maxlength": "",
            "rows": 4,
            "new_lines": "br",
            "readonly": 0,
            "disabled": 0
        },
        {
            "key": "field_587bf4a7b4a12",
            "label": "Background",
            "name": "h__lieu_banner_background",
            "type": "image",
            "instructions": "",
            "required": 1,
            "conditional_logic": 0,
            "wrapper": {
                "width": "",
                "class": "",
                "id": ""
            },
            "return_format": "url",
            "preview_size": "thumbnail",
            "library": "all",
            "min_width": "",
            "min_height": "",
            "min_size": "",
            "max_width": "",
            "max_height": "",
            "max_size": "",
            "mime_types": ""
        },
        {
            "key": "field_587c249ac625a",
            "label": "Bouton - Texte",
            "name": "h__lieu_btn_texte",
            "type": "text",
            "instructions": "",
            "required": 1,
            "conditional_logic": 0,
            "wrapper": {
                "width": "",
                "class": "",
                "id": ""
            },
            "default_value": "R\u00e9server une s\u00e9ance",
            "placeholder": "",
            "prepend": "",
            "append": "",
            "maxlength": "",
            "readonly": 0,
            "disabled": 0
        },
        {
            "key": "field_587c24c3c625b",
            "label": "Bouton - Lien",
            "name": "h__lieu_btn_lien",
            "type": "page_link",
            "instructions": "",
            "required": 1,
            "conditional_logic": 0,
            "wrapper": {
                "width": "",
                "class": "",
                "id": ""
            },
            "post_type": [],
            "taxonomy": [],
            "allow_null": 0,
            "multiple": 0
        }
    ],
    "location": [
        [
            {
                "param": "page_template",
                "operator": "==",
                "value": "page-homepage.php"
            }
        ]
    ],
    "menu_order": 3,
    "position": "normal",
    "style": "default",
    "label_placement": "top",
    "instruction_placement": "label",
    "hide_on_screen": "",
    "active": 1,
    "description": "",
    "modified": 1484565812
}